{
    "sch": [ ],
    "waitingliist": [ ],
    "whitelist": [
      {
        "id": "879792490",
        "first_name": "Egie",
        "last_name": "Sugina",
        "type": "private"
      } ],
    "admin": [
      {
        "id": "879792490",
        "first_name": "Egie",
        "last_name": "Sugina",
        "type": "private"
      } 
    ]
  }